<?xml version="1.0" encoding="UTF-8" standalone="no"?>
<!-- Created with Inkscape (http://www.inkscape.org/) -->

<svg
   xmlns:dc="http://purl.org/dc/elements/1.1/"
   xmlns:cc="http://creativecommons.org/ns#"
   xmlns:rdf="http://www.w3.org/1999/02/22-rdf-syntax-ns#"
   xmlns:svg="http://www.w3.org/2000/svg"
   xmlns="http://www.w3.org/2000/svg"
   xmlns:sodipodi="http://sodipodi.sourceforge.net/DTD/sodipodi-0.dtd"
   xmlns:inkscape="http://www.inkscape.org/namespaces/inkscape"
   width="217.2874"
   height="182"
   viewBox="0 0 217.2874 182"
   version="1.1"
   id="SVGRoot"
   inkscape:version="0.92.3 (2405546, 2018-03-11)"
   sodipodi:docname="logo_red_n.svg">
  <sodipodi:namedview
     id="base"
     pagecolor="#ffffff"
     bordercolor="#666666"
     borderopacity="1.0"
     inkscape:pageopacity="0"
     inkscape:pageshadow="2"
     inkscape:zoom="2.302198"
     inkscape:cx="70.248677"
     inkscape:cy="93.347394"
     inkscape:document-units="px"
     inkscape:current-layer="text3843"
     showgrid="false"
     inkscape:window-width="1920"
     inkscape:window-height="1018"
     inkscape:window-x="0"
     inkscape:window-y="34"
     inkscape:window-maximized="1"
     inkscape:grid-bbox="true"
     inkscape:snap-text-baseline="false"
     inkscape:pagecheckerboard="true"
     inkscape:lockguides="false" />
  <defs
     id="defs3825" />
  <metadata
     id="metadata3828">
    <rdf:RDF>
      <cc:Work
         rdf:about="">
        <dc:format>image/svg+xml</dc:format>
        <dc:type
           rdf:resource="http://purl.org/dc/dcmitype/StillImage" />
        <dc:title></dc:title>
      </cc:Work>
    </rdf:RDF>
  </metadata>
  <g
     id="layer1"
     inkscape:groupmode="layer"
     inkscape:label="Layer 1"
     transform="translate(2.2741159e-6,-37.000006)">
    <g
       aria-label="[HK]"
       transform="scale(1.0002447,0.99975536)"
       style="font-style:normal;font-variant:normal;font-weight:normal;font-stretch:normal;font-size:51.74071121px;line-height:1.25;font-family:'Do Hyeon';-inkscape-font-specification:'Do Hyeon';letter-spacing:0px;word-spacing:0px;fill:#c42e20;fill-opacity:0.94117647;stroke:none;stroke-width:1.29351771"
       id="text3843">
      <path
         d="M -2.2735596e-6,37.00906 H 60.350366 V 65.569934 H 29.305938 V 190.74107 h 31.044428 v 28.31252 H -2.2735596e-6 Z"
         style="font-style:normal;font-variant:normal;font-weight:normal;font-stretch:normal;font-size:248.35542297px;font-family:'Do Hyeon';-inkscape-font-specification:'Do Hyeon, Normal';font-variant-ligatures:normal;font-variant-caps:normal;font-variant-numeric:normal;font-feature-settings:normal;text-align:start;writing-mode:lr-tb;text-anchor:start;fill:#c42e20;fill-opacity:0.94117647;stroke-width:1.29351771"
         id="path3935"
         inkscape:connector-curvature="0" />
      <path
         id="path3939"
         style="font-style:normal;font-variant:normal;font-weight:normal;font-stretch:normal;font-size:172.46905518px;font-family:'Do Hyeon';-inkscape-font-specification:'Do Hyeon, Normal';font-variant-ligatures:normal;font-variant-caps:normal;font-variant-numeric:normal;font-feature-settings:normal;text-align:start;writing-mode:lr-tb;text-anchor:start;fill:#c42e20;fill-opacity:0.94117647;stroke-width:1.29351771"
         d="m 135.48263,127.46217 22.07604,29.83715 q 5.69148,7.58863 11.21049,15.0048 5.51901,7.41617 11.03802,14.65987 H 156.8688 l -35.18369,-46.39417 h -1.03482 v 46.39417 H 98.401787 V 69.512566 h 22.248503 v 46.394174 h 1.03482 L 156.8688,69.512566 h 22.76591 z m -15.34974,59.50182 H 98.401787 V 137.98278 H 60.631064 v 48.98121 H 38.727494 V 69.512566 h 21.90357 V 118.32131 H 98.401787 V 69.512566 h 21.731103 z"
         inkscape:connector-curvature="0" />
      <path
         d="m 217.23424,219.05359 h -60.35036 v -28.31252 h 31.04443 V 65.569934 H 156.88388 V 37.00906 h 60.35036 z"
         style="font-style:normal;font-variant:normal;font-weight:normal;font-stretch:normal;font-size:248.35542297px;font-family:'Do Hyeon';-inkscape-font-specification:'Do Hyeon, Normal';font-variant-ligatures:normal;font-variant-caps:normal;font-variant-numeric:normal;font-feature-settings:normal;text-align:start;writing-mode:lr-tb;text-anchor:start;fill:#c42e20;fill-opacity:0.94117647;stroke-width:1.29351771"
         id="path3941"
         inkscape:connector-curvature="0" />
    </g>
  </g>
</svg>
