<?xml version="1.0" encoding="UTF-8" standalone="no"?>
<svg
   xmlns:dc="http://purl.org/dc/elements/1.1/"
   xmlns:cc="http://creativecommons.org/ns#"
   xmlns:rdf="http://www.w3.org/1999/02/22-rdf-syntax-ns#"
   xmlns:svg="http://www.w3.org/2000/svg"
   xmlns="http://www.w3.org/2000/svg"
   viewBox="0 0 666.66669 666.66669"
   height="666.66669"
   width="666.66669"
   xml:space="preserve"
   id="svg2"
   version="1.1"><metadata
     id="metadata8"><rdf:RDF><cc:Work
         rdf:about=""><dc:format>image/svg+xml</dc:format><dc:type
           rdf:resource="http://purl.org/dc/dcmitype/StillImage" /><dc:title></dc:title></cc:Work></rdf:RDF></metadata><defs
     id="defs6"><clipPath
       id="clipPath20"
       clipPathUnits="userSpaceOnUse"><path
         id="path18"
         d="M 0,500 H 500 V 0 H 0 Z" /></clipPath></defs><g
     transform="matrix(1.3333333,0,0,-1.3333333,0,666.66667)"
     id="g10"><path
       id="path12"
       style="fill:#005388;fill-opacity:1;fill-rule:nonzero;stroke:none"
       d="M 0,0 H 500 V 500 H 0 Z" /><g
       id="g14"><g
         clip-path="url(#clipPath20)"
         id="g16"><g
           transform="translate(278.1787,275.0957)"
           id="g22"><path
             id="path24"
             style="fill:#ffffff;fill-opacity:1;fill-rule:nonzero;stroke:none"
             d="m 0,0 c 0,-2.424 1.483,-5.936 4.701,-4.936 0.161,0.088 0.309,0.03 0.278,-0.118 -0.499,-2.689 -5.289,-5.142 -7.477,-1.969 -1.94,-4.114 -1.499,-7.948 2.703,-10.197 0.235,-0.145 0.279,-0.425 0,-0.616 -2.498,-1.822 -6.377,-1.409 -8.199,2.086 -3.438,-2.587 -2.937,-8.109 -0.851,-9.99 0,-0.031 -9.52,-5.656 -18.159,-1.645 -5.738,2.762 -10.403,6.257 -17.785,5.699 1.036,10.359 6.215,13.077 15.735,14.576 7.603,1.234 8.572,4.729 7.486,7.375 -2.578,0.674 -7.317,-1.69 -7.317,-1.69 -0.845,1.425 0.39,2.894 0.39,2.894 -0.485,0.588 -0.713,2.497 -0.713,2.497 5.311,0 6.259,1.176 6.259,1.176 0.956,5.539 -4.688,6.127 -8.992,3.145 -2.006,1.762 -1.675,4.113 -1.675,4.113 -0.595,0.293 -0.977,1.22 -0.977,1.617 0,1.292 6.325,4.848 7.948,5.275 0.404,1.835 2.69,4.376 9.396,3.773 0.794,1.778 -0.499,8.258 -1.321,10.007 -0.266,0.514 0.116,0.808 0.704,0.455 2.336,-1.498 4.672,-6.964 6.259,-7.052 0,0 7.537,3.938 7.904,3.732 0.368,-0.206 1.426,-8.64 1.426,-8.64 0.999,-1.233 6.816,-0.029 9.358,-1.101 0.647,-0.279 0.617,-0.75 0.043,-0.838 C 5.215,19.305 -0.853,16.689 -1.837,15.016 1.631,9.799 0,2.116 0,0 m -67.238,-4.306 c -0.574,-0.763 -2.425,0.045 -3.13,0.368 -0.161,0.074 -0.19,0 -0.132,-0.118 0.448,-0.998 2.24,-4.01 4.9,-4.01 1.205,0 2.968,0.72 3.459,1.513 0,0 10.418,-3.379 15.559,-4.79 -1.998,-2.659 -3.246,-5.877 -3.489,-9.343 -4.15,2.541 -20.76,11.458 -20.76,11.458 l -5.164,-7.049 c -0.838,-1.148 -4.965,1.848 -4.106,3.025 l 3.93,5.377 c -1.292,1.381 -4.444,0.499 -5.282,0.264 -0.125,-0.029 -0.228,0.029 -0.125,0.235 0.5,1.059 2.454,4.306 7.346,2.852 0.015,2.967 -4.436,2.026 -5.597,1.703 -0.132,-0.029 -0.183,0.03 -0.059,0.161 1.204,1.293 4.812,4.218 8.86,1.822 l 1.777,2.425 -3.571,3.732 2.227,3.084 2.498,-3.379 19.187,26.27 c 0.463,0.646 4.253,1.749 5.701,2.058 0.146,-1.47 0.315,-5.408 -0.155,-6.054 L -62.213,0.792 -58.239,-0.5 -60.436,-3.584 -65.13,-1.396 Z M 75.811,-142.454 c 0.234,0.045 0.262,0.222 0.116,0.353 -2.497,1.617 -4.438,3.85 -4.438,6.318 0,4.408 8.449,10.212 12.504,10.212 2.395,0 4.128,-2.895 8.771,-2.895 2.394,0 5.186,0.984 7.507,3.877 0.163,0.236 0.075,0.413 -0.191,0.368 -1.938,-0.307 -7.169,-1.6 -9.607,7.832 -2.528,9.843 -3.366,16.984 0.999,20.744 3.686,3.173 19.922,9.315 28.853,12.738 0.471,0.177 0.443,0.515 0,0.618 -2.468,0.69 -4.877,2.188 -5.201,5.216 -0.234,1.894 0.178,4.495 2.308,5.759 -4.409,4.774 -13.164,8.094 -17.763,8.094 -17.675,0 -32.675,-23.932 -39.859,-23.932 -0.882,0 -2.057,0.324 -3.115,1.867 -0.218,0.307 -0.469,0.337 -0.469,-0.193 0,-7.243 3.834,-7.889 5.862,-7.889 1.161,-0.016 2.394,0.368 3.276,0.867 0.25,0.147 0.366,0.028 0.366,-0.235 0,-0.279 -0.058,-0.998 -0.058,-1.498 0,-8.538 8.903,-17.837 8.903,-17.837 -4.039,-4.202 -14.104,-11.225 -16.911,-7.493 -1.187,1.528 -6.463,11.019 -13.515,3.467 -0.236,-0.293 -0.074,-0.602 0.412,-0.602 3.951,0 7.051,-2.718 5.979,-6.803 -5.7,4.556 -13.576,3.806 -13.576,-6.699 0,-0.411 0.396,-0.498 0.618,-0.206 3.76,5.407 9.696,1.749 10.563,0.97 -3.996,-0.617 -10.916,-5.304 -4.82,-13.605 0.25,-0.382 0.486,-0.293 0.529,0 0.618,5.467 3.938,6.392 6.656,6.392 5.583,0 9.667,-5.127 13.928,0.308 1.529,-7.126 9.447,-6.434 11.373,-6.113 m -195.316,6.113 c 4.261,-5.435 8.338,-0.308 13.921,-0.308 2.726,0 6.045,-0.925 6.663,-6.392 0.029,-0.293 0.271,-0.382 0.544,0 6.074,8.301 -0.846,12.988 -4.849,13.605 0.874,0.779 6.817,4.437 10.593,-0.97 0.198,-0.292 0.616,-0.205 0.616,0.206 0,10.505 -7.881,11.255 -13.597,6.699 -1.072,4.085 2.013,6.803 6.002,6.803 0.463,0 0.647,0.309 0.389,0.602 -7.037,7.552 -12.319,-1.939 -13.509,-3.467 -2.813,-3.732 -12.877,3.291 -16.896,7.493 0,0 8.889,9.299 8.889,17.837 0,0.5 -0.059,1.219 -0.059,1.498 0,0.263 0.125,0.382 0.36,0.235 0.875,-0.499 2.123,-0.883 3.284,-0.867 2.028,0 5.869,0.646 5.869,7.889 0,0.53 -0.242,0.5 -0.485,0.193 -1.05,-1.543 -2.225,-1.867 -3.129,-1.867 -7.176,0 -22.163,23.932 -39.837,23.932 -4.62,0 -13.362,-3.32 -17.77,-8.094 2.138,-1.264 2.542,-3.865 2.321,-5.759 -0.315,-3.028 -2.725,-4.526 -5.193,-5.216 -0.449,-0.103 -0.478,-0.441 0,-0.618 8.925,-3.423 25.153,-9.565 28.84,-12.738 4.378,-3.76 3.519,-10.901 0.992,-20.744 -2.446,-9.432 -7.669,-8.139 -9.594,-7.832 -0.272,0.045 -0.374,-0.132 -0.198,-0.368 2.299,-2.893 5.097,-3.877 7.507,-3.877 4.636,0 6.362,2.895 8.771,2.895 4.048,0 12.503,-5.804 12.503,-10.212 0,-2.468 -1.939,-4.701 -4.422,-6.318 -0.168,-0.131 -0.139,-0.308 0.103,-0.353 1.925,-0.321 9.843,-1.013 11.371,6.113 M -36.113,6.083 c 3.085,0.779 6.471,0.411 6.831,0.279 0.5,-0.148 0.486,-0.882 -0.073,-0.956 -6.42,-0.822 -6.722,-3.79 -10.813,-3.79 -2.711,0 -5.627,2.733 -4.533,6.729 0.139,0.513 0.544,0.529 0.661,0.058 0.404,-1.733 2.902,-3.613 7.927,-2.32 m 16.102,10.784 c -4.364,0.264 -7.147,-0.706 -7.031,-2.116 2.123,-2.219 4.945,-1.969 7.031,2.116 M -56.748,-96.702 c -2.424,-2.967 -4.562,-0.148 -7.75,-0.148 -3.012,0 -3.505,-2.497 -3.585,-3.496 -0.014,-0.175 -0.117,-0.263 -0.235,-0.058 -3.402,4.642 0.404,7.169 2.615,7.508 -0.316,0.308 -3.673,2.57 -5.789,-0.516 -0.168,-0.219 -0.382,-0.115 -0.382,0.147 -0.088,5.76 4.475,6.158 7.479,3.645 0.558,2.174 -0.852,3.642 -3.292,3.761 -0.3,0 -0.344,0.175 -0.227,0.323 1.021,1.088 2.013,1.586 3.012,1.586 3.217,0 3.607,-4.04 5.714,-4.04 3.145,0 7.582,4.217 8.001,4.673 -0.074,0.249 -3.079,8.388 -2.498,13.266 0.029,0.205 -0.073,0.235 -0.206,0.148 -1.52,-0.868 -5.37,-0.839 -5.37,3.921 0,0.368 0.104,0.397 0.316,0.104 1.697,-2.351 4.437,0.293 5.789,1.837 1.491,1.63 9.403,13.164 19.952,13.164 2.314,-0.017 5.325,-1.28 7.727,-2.969 -3.636,-4.436 -0.029,-8.682 2.683,-8.138 0.315,0.073 0.358,-0.222 0.059,-0.338 -13.944,-5.231 -20.173,-7.332 -20.173,-19.013 0,-6.111 2.071,-9.491 5.656,-8.698 0.272,0.089 0.346,-0.029 0.147,-0.235 -1.293,-1.556 -2.784,-2.056 -4.033,-2.056 -2.887,0 -3.409,1.587 -4.959,1.587 -1.609,0 -6.802,-3.057 -6.802,-5.614 0,-0.968 0.618,-2.276 2.453,-3.481 0.118,-0.073 0.045,-0.19 -0.058,-0.19 -1.161,-0.237 -5.282,-0.587 -6.244,3.32 m -18.857,49.6 -5.444,1.396 -0.448,-0.661 -6.339,2.762 c 0,0 4.665,0.03 5.663,0.058 0.522,0 0.566,0.322 0.279,0.588 -2.57,2.526 -4.826,4.746 -4.826,4.746 0,0 2.572,-0.956 6.244,-2.337 0.419,-0.147 0.573,0.177 0.375,0.441 -1.763,2.615 -4.166,6.112 -4.166,6.112 0,0 5.099,-3.408 6.12,-4.114 0.331,-0.221 0.603,0 0.47,0.338 -1.366,3.35 -2.902,7.154 -2.902,7.154 l 5.576,-5.258 c 0.257,-0.235 0.544,-0.119 0.485,0.234 -0.558,2.512 -1.549,7.17 -1.549,7.17 l 4.105,-5.98 c 0.242,-0.366 0.544,-0.249 0.559,0.163 0.014,1.159 0.118,6.552 0.118,6.552 0,0 1.733,-3.967 2.607,-5.993 0.177,-0.414 0.478,-0.443 0.705,0.086 0.272,0.648 2.108,5.054 2.108,5.054 l 0.235,-6.815 -0.903,-0.178 -1.139,-8.212 c 8.14,1.925 18.277,15.823 26.042,15.823 9.248,0 12.62,-10.843 29.728,-5.334 4.321,-6.391 5.819,-11.943 7.495,-19.643 6.596,-6.199 15.866,-4.129 15.866,2.439 0,8.874 -9.652,10.549 -9.652,19.805 0,4.114 2.894,10.05 10.784,10.05 4.172,0 10.283,-1.794 13.809,-1.794 4.188,0 5.07,3.042 5.538,4.291 0.384,0.939 1.515,0.618 1.412,-0.104 -0.132,-0.867 0.485,-2.07 0.485,-4.068 0,-5.85 -8.507,-6.598 -9.564,-5.878 -0.441,0.295 -0.765,-0.16 -0.441,-0.411 1.277,-1.027 0.984,-4.525 -0.529,-6.729 -0.177,-0.265 -0.427,-0.205 -0.472,0.03 -0.908,4.172 -5.816,9.342 -10.151,9.342 -1.585,0 -4.745,-0.923 -4.745,-4.582 0,-5.26 10.52,-10.048 10.52,-20.951 0,-11.328 -11.226,-14.046 -22.508,-11.224 0.382,-10.726 16.411,-17.102 16.778,-9.432 0.015,0.529 0.307,0.205 0.47,-0.016 2.379,-3.276 1.291,-5.773 -1.734,-7.037 2.791,-1.263 3.291,-6.89 4.113,-10.254 1.235,-5.055 6.568,-2.249 6.847,-2.101 0.279,0.16 0.382,0.014 0.266,-0.309 -2.028,-5.26 -7.407,-3.262 -7.407,-3.262 -2.819,-1.998 0.589,-3.761 3.145,-4.524 0.382,-0.102 0.367,-0.382 0.058,-0.501 -1.895,-0.705 -5.919,-1.969 -7.874,1.411 -1.456,-3.482 -4.422,-3.393 -5.583,-3.393 -2.058,0 -3.438,-2.102 -2.954,-4.922 0.045,-0.25 -0.132,-0.323 -0.307,-0.177 -4.922,3.247 -2.102,7.081 -0.119,8.052 -0.336,0.191 -3.715,1.615 -5.169,-2.352 -0.105,-0.322 -0.295,-0.322 -0.399,-0.03 -2.159,5.702 2.528,7.376 5.907,5.936 -0.236,0.809 -1.998,3.585 -6.451,2.705 -0.206,-0.059 -0.337,0.028 -0.206,0.293 0.736,1.763 2.926,4.334 6.979,1.734 2.044,-1.279 5.598,0.587 5.923,0.734 -7.156,14.281 -21.099,2.336 -24.213,13.516 -0.059,0.221 -0.338,0.441 -0.529,-0.175 -0.735,-2.381 -6.825,-2.557 -7.934,2.145 -0.095,0.352 0.058,0.41 0.287,0.16 0.88,-0.88 2.799,-1.689 5.311,1.925 1.66,2.41 1.894,5.598 1.894,7.787 0,8.669 -8.667,23.242 -22.176,23.242 -8.544,0 -17.741,-3.349 -24.558,-8.314 l 6.354,-1.456 c -0.602,-6.405 -6.773,-10.136 -12.444,-8.564 l 0.977,7.331 c -0.977,-0.295 -3.46,-1.19 -4.797,-3.07 -0.088,-0.147 -0.287,-0.119 -0.331,0.057 -1.16,4.159 2.271,6.26 3.336,6.788 0.125,0.089 0.125,0.176 -0.103,0.176 -3.085,0.118 -4.811,-2.144 -5.297,-2.924 -0.072,-0.131 -0.206,-0.087 -0.257,0.016 -0.234,0.764 -0.778,2.908 0.647,4.437 m 48.072,-134.666 c 53.888,0 108.602,-2.822 115.773,-10.96 0.558,-0.647 0.807,0.029 0.807,0.499 l 0.015,28.577 c 0,8.329 -56.46,13.177 -116.595,13.177 -60.134,0 -116.581,-4.848 -116.581,-13.177 l 0.015,-28.577 c 0,-0.47 0.227,-1.146 0.793,-0.499 7.163,8.138 61.882,10.96 115.773,10.96 m 87.917,-12.753 v -12.385 c 0,-21.053 34.672,-1.309 68.155,0.808 27.767,1.821 35.54,-5.26 35.54,-5.26 l -5.113,28.091 c -0.264,1.513 -6.274,5.847 -25.431,5.847 -23.054,0 -34.6,-4.408 -38.816,-5.906 v -14.75 c 0,-3.35 -1.704,-4.995 -4.261,-6.025 0,1.235 -3.835,9.58 -30.074,9.58 m -205.915,-9.58 c -2.557,1.03 -4.24,2.675 -4.24,6.025 v 14.75 c -4.23,1.498 -15.778,5.906 -38.83,5.906 -19.165,0 -25.168,-4.334 -25.439,-5.847 l -5.105,-28.091 c 0,0 7.765,7.081 35.554,5.26 33.461,-2.117 68.133,-21.861 68.133,-0.808 v 12.385 c -26.231,0 -30.073,-8.345 -30.073,-9.58 m 63.807,243.372 c -8.051,-1.762 -13.811,-3.423 -16.397,-4.216 0.133,3.555 1.47,6.847 4.643,7.581 0.412,0.088 0.515,0.633 0.14,0.881 -7.178,4.776 -11.012,-4.349 -11.137,-4.643 -2.542,0.177 -6.406,-0.616 -6.406,-4.053 0,-10.257 -23.485,-15.971 -28.928,-16.794 9.58,-3.702 13.583,-15.794 13.583,-15.794 6.963,6.964 15.103,13.106 16.911,13.106 1.85,0 2.555,-2.322 2.695,-3.702 0.044,-0.456 0.478,-0.619 0.764,-0.206 3.644,5.436 1.896,6.67 1.594,8.256 -0.242,1.264 0.14,6.038 5.443,5.466 v -68.522 l -2.718,-0.546 c -1.263,-0.219 -11.283,8.301 -22.75,16.235 -11.474,7.935 -17.645,3.189 -30.735,-3.892 -17.124,-9.272 -34.438,-0.867 -34.438,-0.867 -14.773,-10.549 -19.783,-41.049 -19.783,-41.049 -2.945,-1.264 -7.823,-2.586 -12.444,-2.586 -11.269,0 -13.34,6.816 -13.34,10.9 0,17.397 21.781,24.859 21.781,42.005 0,4.158 -1.911,21.083 -22.854,21.083 -2.674,0 -18.651,0.029 -18.725,0.029 -7.838,0 -9.8,5.641 -10.879,7.786 -0.419,0.854 -1.219,0.368 -0.918,-0.293 0.602,-1.439 -0.918,-3.629 -0.918,-7.978 0,-6.965 4.091,-11.166 11.724,-11.166 3.46,0 6.721,1 7.772,1.631 0.712,0.411 1.087,-0.263 0.756,-0.646 -3.313,-3.879 -3.585,-11.136 -2.211,-12.914 0.316,-0.426 0.721,-0.295 0.793,0.03 1.852,7.374 8.742,14.323 18.013,14.323 11.357,0 11.298,-9.667 11.298,-11.987 0,-13.958 -24.506,-24.212 -24.506,-43.386 0,-19.466 20.562,-23.639 32.476,-20.554 -0.705,-19.481 -23,-26.123 -23.676,-12.194 -0.066,0.676 -0.528,0.837 -0.903,-0.059 -2.813,-6.876 -1.704,-12.93 6.979,-14.854 0.587,-0.161 0.3,-0.47 -0.243,-0.837 -8.587,-5.465 -3.923,-26.946 -3.504,-33.263 0.646,-9.109 -8.411,-8.021 -9.146,-7.758 -0.374,0.133 -0.734,-0.043 -0.169,-0.763 6.428,-7.89 14.355,-0.675 14.355,-0.675 5.987,-1.881 2.27,-6.994 -1.712,-9.683 -0.632,-0.426 -0.573,-0.822 0.103,-0.866 0.889,-0.059 10.166,-0.854 11.826,6.552 4.107,-4.907 10.138,-3.115 11.416,-2.468 1.778,0.911 10.475,4.069 11.328,-5.715 0.059,-0.692 0.47,-0.235 0.756,0.132 6.575,8.257 -0.47,13.354 -4.379,13.957 0.317,0.44 5.577,4.819 10.322,-1.234 0.316,-0.412 0.617,-0.499 0.676,0.308 0.543,10.49 -7.993,11.446 -13.494,6.875 -0.258,1.088 -2.094,6.981 6.229,6.774 0.191,0 0.602,0.294 0.176,0.691 -6.464,6.847 -11.776,0.632 -13.01,-0.853 -2.894,-3.393 -10.049,-2.041 -10.71,-1.954 2.24,36.407 34.313,23.508 38.72,41.198 0.214,0.939 0.632,0.587 0.706,0.25 1.219,-4.322 12.113,-4.922 14.097,3.568 0.124,0.529 0.043,0.956 -0.331,0.559 -9.278,-9.286 -30.192,19.717 -1.653,43.252 24.359,20.099 46.184,8.904 54.492,2.293 0.434,-2.909 -1.293,-3.849 -2.409,-4.202 -0.389,-0.118 -0.528,-0.5 0.103,-0.735 2.336,-0.882 5.598,-0.616 7.133,1.558 5.238,-3.643 0.756,-8.257 -1.366,-9.521 -0.53,-0.338 -0.302,-0.705 0.147,-0.793 4.803,-0.852 8.756,4.055 8.954,6.876 l 0.793,-0.472 v -20.684 c 0,-29.444 33.99,-33.528 71.286,-58.503 37.288,24.975 71.269,29.059 71.269,58.503 v 20.684 l 0.825,0.472 c 0.175,-2.821 4.141,-7.728 8.931,-6.876 0.456,0.088 0.677,0.455 0.148,0.793 -2.117,1.264 -6.582,5.878 -1.367,9.521 1.543,-2.174 4.819,-2.44 7.14,-1.558 0.618,0.235 0.5,0.617 0.103,0.735 -1.102,0.353 -2.85,1.293 -2.394,4.202 8.286,6.611 30.133,17.806 54.491,-2.293 28.518,-23.535 7.612,-52.538 -1.674,-43.252 -0.382,0.397 -0.426,-0.03 -0.324,-0.559 1.998,-8.49 12.87,-7.89 14.076,-3.568 0.087,0.337 0.529,0.689 0.719,-0.25 4.407,-17.69 36.496,-4.791 38.729,-41.198 -0.648,-0.087 -7.816,-1.439 -10.697,1.954 -1.232,1.485 -6.551,7.7 -13.031,0.853 -0.412,-0.397 -0.03,-0.691 0.191,-0.691 8.33,0.207 6.494,-5.686 6.215,-6.774 -5.496,4.571 -14.031,3.615 -13.473,-6.875 0.045,-0.807 0.367,-0.72 0.677,-0.308 4.73,6.053 9.989,1.674 10.312,1.234 -3.922,-0.603 -10.944,-5.7 -4.377,-13.957 0.279,-0.367 0.69,-0.824 0.749,-0.132 0.853,9.784 9.55,6.626 11.342,5.715 1.264,-0.647 7.286,-2.439 11.415,2.468 1.645,-7.406 10.917,-6.611 11.827,-6.552 0.661,0.044 0.721,0.44 0.103,0.866 -3.996,2.689 -7.714,7.802 -1.733,9.683 0,0 7.947,-7.215 14.355,0.675 0.571,0.72 0.218,0.896 -0.148,0.763 -0.75,-0.263 -9.815,-1.351 -9.168,7.758 0.441,6.317 5.083,27.798 -3.496,33.263 -0.545,0.367 -0.838,0.676 -0.251,0.837 8.683,1.924 9.816,7.978 6.994,14.854 -0.368,0.896 -0.867,0.735 -0.91,0.059 -0.661,-13.929 -22.979,-7.287 -23.684,12.194 11.916,-3.085 32.484,1.088 32.484,20.554 0,19.174 -24.506,29.428 -24.506,43.386 0,2.32 -0.059,11.987 11.298,11.987 9.269,0 16.161,-6.949 18.012,-14.323 0.074,-0.325 0.468,-0.456 0.808,-0.03 1.351,1.778 1.102,9.035 -2.219,12.914 -0.337,0.383 0.031,1.057 0.75,0.646 1.043,-0.631 4.319,-1.631 7.772,-1.631 7.609,0 11.71,4.201 11.71,11.166 0,4.349 -1.499,6.539 -0.897,7.978 0.309,0.661 -0.499,1.147 -0.912,0.293 -1.101,-2.145 -3.054,-7.786 -10.9,-7.786 -0.074,0 -16.045,-0.029 -18.732,-0.029 -20.937,0 -22.846,-16.925 -22.846,-21.083 0,-17.146 21.788,-24.608 21.788,-42.005 0,-4.084 -2.072,-10.9 -13.34,-10.9 -4.629,0 -9.507,1.322 -12.43,2.586 0,0 -5.025,30.5 -19.806,41.049 0,0 -17.306,-8.405 -34.437,0.867 -13.091,7.081 -19.247,11.827 -30.734,3.892 -11.461,-7.934 -21.481,-16.454 -22.729,-16.235 l -2.749,0.546 v 68.522 c 5.32,0.572 5.702,-4.202 5.452,-5.466 -0.28,-1.586 -2.042,-2.82 1.617,-8.256 0.262,-0.413 0.705,-0.25 0.734,0.206 0.148,1.38 0.853,3.702 2.703,3.702 1.792,0 9.947,-6.142 16.909,-13.106 0,0 4.012,12.092 13.605,15.794 -5.464,0.823 -28.943,6.537 -28.943,16.794 0,3.437 -3.877,4.23 -6.405,4.053 -0.132,0.294 -3.966,9.419 -11.121,4.643 -0.397,-0.248 -0.295,-0.793 0.116,-0.881 3.173,-0.734 4.527,-4.026 4.672,-7.581 -6.86,2.087 -36.024,10.284 -70.608,10.284 -16.793,0 -32.256,-1.938 -44.547,-4.158 V 17.424 h -9.644 v 21.847 m 54.191,22.052 c 29.546,0 46.235,-5.64 46.235,-5.64 0.161,14.926 0.059,23.257 8.61,22.007 -4.672,12.547 15.484,17.469 15.484,33.821 0,10.755 -7.61,11.989 -9.857,11.989 -6.686,0 -5.643,-4.364 -11.342,-4.364 -0.705,0 -1.425,0.185 -1.425,-0.331 0,-1.879 1.601,-5.09 4.216,-5.09 3.482,0 3.555,3.496 6.155,3.496 1.117,0 2.748,-0.918 2.748,-4.495 0,-6.948 -4.555,-14.662 -9.946,-20.627 -1.234,1.704 -2.909,2.762 -4.922,2.762 -3.189,0 -5.964,-3.32 -5.964,-7.434 0,-1.513 0.234,-2.615 0.793,-3.879 -1.808,-0.997 -3.395,-1.572 -4.584,-1.572 -2.424,0 -6.084,0.985 -6.084,6.303 0,11.842 15.869,22.273 15.869,37.281 0,7.177 -4.774,14.303 -14.781,14.303 -10.754,0 -8.74,-9.793 -18.026,-9.793 -0.426,0 -0.78,-0.132 -0.78,-0.506 0,-0.618 1.617,-6.038 6.436,-6.038 5.128,0 6.582,8.88 11.136,8.88 1.689,0 4.231,-0.991 4.231,-7.016 0,-4.693 -2.308,-12.252 -5.656,-19.51 -1.19,1.205 -2.822,2.086 -4.672,2.086 -3.983,0 -6.847,-3.864 -6.847,-8.448 0,-2.924 1.161,-5.715 3.13,-7.566 -2.351,-2.997 -4.731,-5.436 -7.992,-5.436 -6.406,0 -9.248,3.642 -9.248,7.595 0,4.306 7.837,5.862 7.837,12.548 0,4.569 -2.968,7.132 -5.804,7.132 -3.07,0 -4.635,-2.034 -4.95,-2.034 -0.316,0 -1.881,2.034 -4.952,2.034 -2.843,0 -5.803,-2.563 -5.803,-7.132 0,-6.686 7.816,-8.242 7.816,-12.548 0,-3.953 -2.828,-7.595 -9.234,-7.595 -3.246,0 -5.641,2.439 -7.984,5.436 1.968,1.851 3.107,4.642 3.107,7.566 0,4.584 -2.858,8.448 -6.825,8.448 -1.851,0 -3.474,-0.881 -4.679,-2.086 -3.328,7.258 -5.657,14.817 -5.657,19.51 0,6.025 2.542,7.016 4.24,7.016 4.546,0 5.986,-8.88 11.15,-8.88 4.797,0 6.406,5.42 6.406,6.038 0,0.374 -0.345,0.506 -0.764,0.506 -9.3,0 -7.302,9.793 -18.027,9.793 -10.005,0 -14.787,-7.126 -14.787,-14.303 0,-15.008 15.888,-25.439 15.888,-37.281 0,-5.318 -3.672,-6.303 -6.096,-6.303 -1.204,0 -2.777,0.575 -4.584,1.572 0.558,1.264 0.793,2.366 0.793,3.879 0,4.114 -2.799,7.434 -5.972,7.434 -2.012,0 -3.688,-1.058 -4.914,-2.762 -5.392,5.965 -9.932,13.679 -9.932,20.627 0,3.577 1.609,4.495 2.718,4.495 2.608,0 2.682,-3.496 6.171,-3.496 2.621,0 4.216,3.211 4.216,5.09 0,0.516 -0.727,0.331 -1.432,0.331 -5.701,0 -4.651,4.364 -11.328,4.364 -2.255,0 -9.873,-1.234 -9.873,-11.989 0,-16.352 20.165,-21.274 15.486,-33.821 8.557,1.25 8.454,-7.081 8.616,-22.007 0,0 16.675,5.64 46.236,5.64 m 0,70.992 c -4.077,0 -7.39,-3.276 -7.39,-7.367 0,-4.063 3.313,-7.376 7.39,-7.376 4.076,0 7.376,3.313 7.376,7.376 0,4.091 -3.3,7.367 -7.376,7.367 m -3.702,15.395 c 0,-1.777 0.763,-3.343 1.365,-4.217 1.249,-1.755 1.058,26.874 0.471,26.286 -0.573,-0.587 -1.551,-0.785 -3.328,0.448 -0.874,0.618 -2.417,-28.202 -4.195,-28.202 -3.04,0 -4.547,27.586 -4.547,25.89 0,-1.72 1.507,-3.703 4.547,-3.703 1.778,0 3.321,0.757 4.195,1.365 1.777,1.235 2.755,1.058 3.328,0.471 0.587,-0.573 -0.272,-6.692 -0.948,-11.497 -5.039,-1.051 -7.464,-5.083 -7.464,-7.426 0,-6.067 6.473,-9.557 10.278,-11.584 3.804,2.027 10.284,5.517 10.284,11.584 0,2.343 -2.439,6.375 -7.456,7.426 -0.691,4.805 -1.549,10.924 -0.962,11.497 0.572,0.587 1.549,0.764 3.32,-0.471 0.868,-0.608 2.41,-1.365 4.201,-1.365 3.042,0 4.541,1.983 4.541,3.703 0,1.696 -1.499,-25.89 -4.541,-25.89 -1.791,0 -3.333,28.82 -4.201,28.202 -1.771,-1.233 -2.748,-1.035 -3.32,-0.448 -0.587,0.588 -0.787,-28.041 0.447,-26.286 0.616,0.874 1.389,2.44 1.389,4.217 0,3.042 -2.005,4.541 -3.702,4.541 -1.719,0 -3.702,-1.499 -3.702,-4.541 M 117.3,58.958 c -1.499,-7.037 -7.759,-8.036 -11.577,-3.76 0.308,3.394 3.687,4.187 11.577,3.76 m 45.602,-39.8 c 0,0.735 -0.307,0.618 -0.6,0.47 -6.054,-3.025 -9.315,3.467 -7.861,10.167 0.837,3.732 4.114,13.855 -4.1,22.067 -8.08,-4.614 -13.516,2.968 -12.135,6.641 0.382,0.969 1.014,1.117 1.014,-0.132 0,-2.557 2.586,-4.437 4.467,-4.437 3.247,0 9.198,3.658 9.696,9.183 -8.36,5.464 -22.435,3.26 -25.255,-7.053 -0.339,-1.293 -1.911,-1.174 -1.808,0.118 0.059,0.881 0.425,6.993 6.524,10.078 5.494,2.748 3.482,6.861 2.042,8.316 -0.603,0.602 -1.734,0.486 -1.366,-0.133 2.116,-3.658 -2.411,-5.303 -8.684,-4.54 -13.28,1.793 -17.659,-3.142 -18.364,-6.565 -2.909,-0.75 -14.207,-7.083 -14.207,-9.434 0,-0.72 0.661,-2.408 1.734,-2.893 0,0 -0.279,-4.79 3.26,-7.935 14.105,8.522 18.043,0.559 16.573,-5.082 0,0 -2.497,-2.057 -12.018,-2.057 0,0 0.47,-3.439 1.263,-4.408 0,0 -2.16,-2.733 -0.632,-5.259 0,0 4.879,3.672 13.34,3.276 0,0 5.378,-8.213 -14.662,-12.077 C 81.04,13.62 74.693,-5.378 74.693,-15.75 c 0,-0.515 0.206,-0.793 0.675,-0.704 16.236,3.026 23.685,-13.812 44.752,-11.9 -1.821,4.951 0.193,10.136 0.193,10.136 1.645,-4.467 5.64,-7.389 8.46,-8.887 7.48,1.659 12.416,5.229 13.546,7.388 0,0 -7.963,6.569 -2.776,18.452 0,0 4.996,-7.932 15.324,-3.612 0.911,0.397 0.703,0.998 0.103,1.189 -13.973,4.511 -4.892,16.309 -4.027,17.497 6.48,-3.613 11.959,1.148 11.959,5.349 M 83.64,38.757 c -4.099,0 -8.006,1.823 -8.756,4.996 -0.161,0.793 -0.852,1.087 -1.175,-0.103 -1.954,-7.126 3.07,-10.446 7.978,-10.446 5.42,0 8.462,3.864 16.176,5.201 3.379,0.558 5.7,0.029 5.7,1.072 0,1.029 -4.982,1.044 -5.7,1.044 -8.038,0 -9.125,-1.764 -14.223,-1.764 m -244.422,16.441 c -3.842,-4.276 -10.078,-3.277 -11.57,3.76 7.868,0.427 11.255,-0.366 11.57,-3.76 m -45.229,-41.389 c 0.845,-1.188 9.947,-12.986 -4.01,-17.497 -0.618,-0.191 -0.831,-0.792 0.103,-1.189 10.305,-4.32 15.301,3.612 15.301,3.612 5.186,-11.883 -2.769,-18.452 -2.769,-18.452 1.131,-2.159 6.045,-5.729 13.538,-7.388 2.828,1.498 6.817,4.42 8.47,8.887 0,0 2.035,-5.185 0.198,-10.136 21.061,-1.912 28.51,14.926 44.744,11.9 0.463,-0.089 0.691,0.189 0.691,0.704 0,10.372 -6.369,29.37 -26.467,33.219 -20.025,3.864 -14.634,12.077 -14.634,12.077 8.456,0.396 13.326,-3.276 13.326,-3.276 1.55,2.526 -0.631,5.259 -0.631,5.259 0.815,0.969 1.248,4.408 1.248,4.408 -9.506,0 -12.003,2.057 -12.003,2.057 -1.462,5.641 2.468,13.604 16.594,5.082 3.52,3.145 3.262,7.935 3.262,7.935 1.058,0.485 1.719,2.173 1.719,2.893 0,2.351 -11.298,8.684 -14.207,9.434 -0.691,3.423 -5.084,8.358 -18.35,6.565 -6.288,-0.763 -10.821,0.882 -8.697,4.54 0.359,0.619 -0.766,0.735 -1.353,0.133 -1.461,-1.455 -3.46,-5.568 2.028,-8.316 6.097,-3.085 6.472,-9.197 6.516,-10.078 0.087,-1.292 -1.462,-1.411 -1.808,-0.118 -2.813,10.313 -16.895,12.517 -25.24,7.053 0.492,-5.525 6.42,-9.183 9.689,-9.183 1.866,0 4.466,1.88 4.466,4.437 0,1.249 0.632,1.101 1.007,0.132 1.366,-3.673 -4.048,-11.255 -12.129,-6.641 -8.212,-8.212 -4.928,-18.335 -4.105,-22.067 1.476,-6.7 -1.8,-13.192 -7.853,-10.167 -0.301,0.148 -0.618,0.265 -0.618,-0.47 0,-4.201 5.509,-8.962 11.974,-5.349 m 53.082,26.712 c -0.727,0 -5.715,-0.015 -5.715,-1.044 0,-1.043 2.329,-0.514 5.715,-1.072 7.714,-1.337 10.754,-5.201 16.168,-5.201 4.922,0 9.932,3.32 7.978,10.446 -0.316,1.19 -1.006,0.896 -1.175,0.103 -0.75,-3.173 -4.65,-4.996 -8.771,-4.996 -5.084,0 -6.186,1.764 -14.2,1.764 M 25.563,-5.597 h -9.637 v 26.753 h 9.637 z m -43.459,-117.831 h -9.637 v 26.74 h 9.637 z" /></g></g></g></g></svg>